Lab 5: Machine Learning in Hydrology – ESS 523c Labs
…
collect_metrics(boost_res)

# A tibble: 25 × 9
   trees min_n learn_rate .metric .estimator   mean     n std_err .config       
   <int> <int>      <dbl> <chr>   <chr>       <dbl> <int>   <dbl> <chr>         
 1   458     2  0.0001    mae     standard   0.842     10 0.0374  Preprocessor1…
 2   417     2  0.00681   mae     standard   0.0896    10 0.00629 Preprocessor1…
 3   125     3  0.000147  mae     standard   0.864     10 0.0383  Preprocessor1…
 4   833     3  0.00147   mae     standard   0.288     10 0.0134  Preprocessor1…
 5   791     4  0.0000316 mae     standard   0.859     10 0.0381  Preprocessor1…
 6   708     4  0.0464    mae     standard   0.0584    10 0.00500 Preprocessor1…
 7    84     5  0.00464   mae     standard   0.610     10 0.0267  Preprocessor1…
 8   250     5  0.1       mae     standard   0.0609    10 0.00592 Preprocessor1…
 9   292     6  0.0000147 mae     standard   0.876     10 0.0388  Preprocessor1…
10   583     6  0.000464  mae     standard   0.682     10 0.0301  Preprocessor1…
# ℹ 15 more rows
…
